%YAML 1.1
%TAG !u! tag:unity3d.com,2011:
--- !u!74 &7400000
AnimationClip:
  m_ObjectHideFlags: 0
  m_CorrespondingSourceObject: {fileID: 0}
  m_PrefabInstance: {fileID: 0}
  m_PrefabAsset: {fileID: 0}
  m_Name: Disc_2_Animation
  serializedVersion: 6
  m_Legacy: 1
  m_Compressed: 0
  m_UseHighQualityCurve: 1
  m_RotationCurves: []
  m_CompressedRotationCurves: []
  m_EulerCurves: []
  m_PositionCurves:
  - curve:
      serializedVersion: 2
      m_Curve:
      - serializedVersion: 3
        time: 5.8333335
        value: {x: 0, y: -0.0014883918, z: 0}
        inSlope: {x: 0, y: -0, z: 0}
        outSlope: {x: 0, y: 0, z: 0}
        tangentMode: 0
        weightedMode: 3
        inWeight: {x: 0.33333334, y: 0, z: 0.33333334}
        outWeight: {x: 0.33333334, y: 0.25, z: 0.33333334}
      - serializedVersion: 3
        time: 7.3333335
        value: {x: 0, y: -0.0165, z: 0}
        inSlope: {x: 0, y: -0, z: 0}
        outSlope: {x: 0, y: 0, z: 0}
        tangentMode: 0
        weightedMode: 3
        inWeight: {x: 0.33333334, y: 0.25, z: 0.33333334}
        outWeight: {x: 0.33333334, y: 0, z: 0.33333334}
      m_PreInfinity: 2
      m_PostInfinity: 2
      m_RotationOrder: 4
    path: 
  m_ScaleCurves:
  - curve:
      serializedVersion: 2
      m_Curve:
      - serializedVersion: 3
        time: 5.8333335
        value: {x: 1, y: 1, z: 1}
        inSlope: {x: -0, y: 0, z: -0}
        outSlope: {x: 0, y: 0, z: 0}
        tangentMode: 0
        weightedMode: 3
        inWeight: {x: 0, y: 0.33333334, z: 0}
        outWeight: {x: 0.25, y: 0.33333334, z: 0.25}
      - serializedVersion: 3
        time: 7.3333335
        value: {x: 0.61, y: 1, z: 0.19}
        inSlope: {x: -0, y: 0, z: -0}
        outSlope: {x: 0, y: 0, z: 0}
        tangentMode: 0
        weightedMode: 3
        inWeight: {x: 0.25, y: 0.33333334, z: 0.25}
        outWeight: {x: 0, y: 0.33333334, z: 0}
      m_PreInfinity: 2
      m_PostInfinity: 2
      m_RotationOrder: 4
    path: 
  m_FloatCurves: []
  m_PPtrCurves: []
  m_SampleRate: 60
  m_WrapMode: 2
  m_Bounds:
    m_Center: {x: 0, y: 0, z: 0}
    m_Extent: {x: 0, y: 0, z: 0}
  m_ClipBindingConstant:
    genericBindings: []
    pptrCurveMapping: []
  m_AnimationClipSettings:
    serializedVersion: 2
    m_AdditiveReferencePoseClip: {fileID: 0}
    m_AdditiveReferencePoseTime: 0
    m_StartTime: 0
    m_StopTime: 7.3333335
    m_OrientationOffsetY: 0
    m_Level: 0
    m_CycleOffset: 0
    m_HasAdditiveReferencePose: 0
    m_LoopTime: 0
    m_LoopBlend: 0
    m_LoopBlendOrientation: 0
    m_LoopBlendPositionY: 0
    m_LoopBlendPositionXZ: 0
    m_KeepOriginalOrientation: 0
    m_KeepOriginalPositionY: 1
    m_KeepOriginalPositionXZ: 0
    m_HeightFromFeet: 0
    m_Mirror: 0
  m_EditorCurves: []
  m_EulerEditorCurves: []
  m_HasGenericRootTransform: 0
  m_HasMotionFloatCurves: 0
  m_Events: []
